16	776571.31235	1756332.99529	
32	501031.607539	830997.019156	
64	814483.056629	2567235.03797	
128	2440392.50417	4573923.44053	
256	904608.204934	2540787.04648	
512	321883.174154	768528.206941	
1024	84046.6943896	200285.562416	
